%YAML 1.1
%TAG !u! tag:unity3d.com,2011:
--- !u!78 &1
TagManager:
  serializedVersion: 2
  tags:
  - Death
  - 1
  - lever_1
  - 2
  - 3
  - lever_2
  - coin
  - gravity
  - Death_Spawn_2
  - lever_3
  - Death_Spawn_3
  - wall
  - lever_4
  - 4
  - press
  - 5
  - lever_5
  - 6
  - lever_6
  - 7
  - lever_7
  - 8
  - lever_8
  - 9
  - lever_9
  layers:
  - Default
  - TransparentFX
  - Ignore Raycast
  - 
  - Water
  - UI
  - 
  - 
  - Ground
  - 
  - 
  - 
  - 
  - 
  - 
  - 
  - 
  - 
  - 
  - 
  - 
  - 
  - 
  - 
  - 
  - 
  - 
  - 
  - 
  - 
  - 
  - 
  m_SortingLayers:
  - name: Default
    uniqueID: 0
    locked: 0
